Started on Aug 26, 2019 12:09:00 PM
Received SCM poll call on master for MavenSpler on Aug 26, 2019 12:09:01 PM
file:///C:/DevOps_Subversion_Repository is at revision 3
  (changed from 2)
Done. Took 0.17 sec
Changes found
